^C:\USERS\ILAYPC\SOURCE\REPOS\LESSON_9\LESSON_9\DEBUG\BSNODE.OBJ|C:\USERS\ILAYPC\SOURCE\REPOS\LESSON_9\LESSON_9\DEBUG\MAIN.OBJ|C:\USERS\ILAYPC\SOURCE\REPOS\LESSON_9\LESSON_9\PRINTTREETOFILE.LIB
C:\USERS\ILAYPC\SOURCE\REPOS\LESSON_9\DEBUG\LESSON_9.EXE
C:\USERS\ILAYPC\SOURCE\REPOS\LESSON_9\DEBUG\LESSON_9.ILK
C:\USERS\ILAYPC\SOURCE\REPOS\LESSON_9\DEBUG\LESSON_9.PDB
