^C:\USERS\ILAYPC\SOURCE\REPOS\LESSON_9\TEMPLATE_EX\DEBUG\MAIN.OBJ
/OUT:"C:\USERS\ILAYPC\SOURCE\REPOS\LESSON_9\DEBUG\TEMPLATE_EX.EXE" /INCREMENTAL /NOLOGO KERNEL32.LIB USER32.LIB GDI32.LIB WINSPOOL.LIB COMDLG32.LIB ADVAPI32.LIB SHELL32.LIB OLE32.LIB OLEAUT32.LIB UUID.LIB ODBC32.LIB ODBCCP32.LIB /MANIFEST /MANIFESTUAC:"level='asInvoker' uiAccess='false'" /manifest:embed /DEBUG:FASTLINK /PDB:"C:\USERS\ILAYPC\SOURCE\REPOS\LESSON_9\DEBUG\TEMPLATE_EX.PDB" /TLBID:1 /DYNAMICBASE /NXCOMPAT /IMPLIB:"C:\USERS\ILAYPC\SOURCE\REPOS\LESSON_9\DEBUG\TEMPLATE_EX.LIB" /MACHINE:X86 DEBUG\MAIN.OBJ
^C:\USERS\ILAYPC\SOURCE\REPOS\LESSON9\LESSON_9\TEMPLATE_EX\DEBUG\MAIN.OBJ
/OUT:"C:\USERS\ILAYPC\SOURCE\REPOS\LESSON9\LESSON_9\DEBUG\TEMPLATE_EX.EXE" /INCREMENTAL /NOLOGO KERNEL32.LIB USER32.LIB GDI32.LIB WINSPOOL.LIB COMDLG32.LIB ADVAPI32.LIB SHELL32.LIB OLE32.LIB OLEAUT32.LIB UUID.LIB ODBC32.LIB ODBCCP32.LIB /MANIFEST /MANIFESTUAC:"level='asInvoker' uiAccess='false'" /manifest:embed /DEBUG:FASTLINK /PDB:"C:\USERS\ILAYPC\SOURCE\REPOS\LESSON9\LESSON_9\DEBUG\TEMPLATE_EX.PDB" /TLBID:1 /DYNAMICBASE /NXCOMPAT /IMPLIB:"C:\USERS\ILAYPC\SOURCE\REPOS\LESSON9\LESSON_9\DEBUG\TEMPLATE_EX.LIB" /MACHINE:X86 DEBUG\MAIN.OBJ
^C:\USERS\ILAYPC\SOURCE\REPOS\LESSON9\LESSON_9\TEMPLATE_EX\DEBUG\INT.OBJ|C:\USERS\ILAYPC\SOURCE\REPOS\LESSON9\LESSON_9\TEMPLATE_EX\DEBUG\MAIN.OBJ
/OUT:"C:\USERS\ILAYPC\SOURCE\REPOS\LESSON9\LESSON_9\DEBUG\TEMPLATE_EX.EXE" /INCREMENTAL /NOLOGO KERNEL32.LIB USER32.LIB GDI32.LIB WINSPOOL.LIB COMDLG32.LIB ADVAPI32.LIB SHELL32.LIB OLE32.LIB OLEAUT32.LIB UUID.LIB ODBC32.LIB ODBCCP32.LIB /MANIFEST /MANIFESTUAC:"level='asInvoker' uiAccess='false'" /manifest:embed /DEBUG:FASTLINK /PDB:"C:\USERS\ILAYPC\SOURCE\REPOS\LESSON9\LESSON_9\DEBUG\TEMPLATE_EX.PDB" /TLBID:1 /DYNAMICBASE /NXCOMPAT /IMPLIB:"C:\USERS\ILAYPC\SOURCE\REPOS\LESSON9\LESSON_9\DEBUG\TEMPLATE_EX.LIB" /MACHINE:X86 DEBUG\INT.OBJDEBUG\MAIN.OBJ
