^C:\USERS\ILAYPC\SOURCE\REPOS\LESSON9\LESSON_9\TEMPLATE_EX\DEBUG\INT.OBJ|C:\USERS\ILAYPC\SOURCE\REPOS\LESSON9\LESSON_9\TEMPLATE_EX\DEBUG\MAIN.OBJ
C:\USERS\ILAYPC\SOURCE\REPOS\LESSON9\LESSON_9\DEBUG\EX2_TEMPLATE.EXE
C:\USERS\ILAYPC\SOURCE\REPOS\LESSON9\LESSON_9\DEBUG\EX2_TEMPLATE.ILK
C:\USERS\ILAYPC\SOURCE\REPOS\LESSON9\LESSON_9\DEBUG\EX2_TEMPLATE.PDB
