^C:\USERS\ILAYPC\SOURCE\REPOS\LESSON9\LESSON_9\EX3_BST\BSNODE.CPP|C:\USERS\ILAYPC\SOURCE\REPOS\LESSON9\LESSON_9\EX3_BST\MAIN.CPP
C:\USERS\ILAYPC\SOURCE\REPOS\LESSON9\LESSON_9\EX3_BST\DEBUG\VC141.PDB
C:\USERS\ILAYPC\SOURCE\REPOS\LESSON9\LESSON_9\EX3_BST\DEBUG\VC141.IDB
C:\USERS\ILAYPC\SOURCE\REPOS\LESSON9\LESSON_9\EX3_BST\DEBUG\MAIN.OBJ
C:\USERS\ILAYPC\SOURCE\REPOS\LESSON9\LESSON_9\EX3_BST\DEBUG\BSNODE.OBJ
^C:\USERS\ILAYPC\SOURCE\REPOS\LESSON9\LESSON_9\EX3_BST\MAIN.CPP
C:\USERS\ILAYPC\SOURCE\REPOS\LESSON9\LESSON_9\EX3_BST\DEBUG\VC141.PDB
C:\USERS\ILAYPC\SOURCE\REPOS\LESSON9\LESSON_9\EX3_BST\DEBUG\VC141.IDB
C:\USERS\ILAYPC\SOURCE\REPOS\LESSON9\LESSON_9\EX3_BST\DEBUG\MAIN.OBJ
